{
  "name": "Pluto",
  "texture": "Textures/Pluto.jpg",
  "initial": {
    "inner_rad": 1137,
    "sm_axis": 39.48211675,
    "ecc": 0.24882730,
    "incl": 17.14001206,
    "mean_long": 238.92903833,
    "per_arg": 224.06891629,
    "an_long": 110.30393684,
    "rot_period": -6.3872
  },
  "delta": {
    "sm_axis": -0.00031596,
    "ecc": 0.00005170,
    "incl": 0.00004818,
    "mean_long": 145.20780515,
    "per_arg": -0.040629424,
    "an_long": -0.01183482
  }
}
